{
  "meterPointId": 1491165,
  "customId": "DE0700081632100000000000070237964",
  "transformRatio": "0",
  "consumptionAverage": 566733.0,
  "measuringType": "DIRECT",
  "medium": "",
  "consumptionForecast": 566733.0,
  "consumptionUnit": "kWh",
  "measuringProduct": "714",
  "createdTimeStamp": "2016-05-17T12:25:18Z"
}