{
  "customId": "81096673",
  "street": "Röwekamp",
  "houseNumber": "0007",
  "postalCode": 12345,
  "city": "Musterstadt",
  "country": "DE",
  "municipalityKey": "03403000",
  "longitude": 419148.9,
  "latitude": 5815058.0,
  "createdTimeStamp": "2016-05-17T12:23:08Z",
  "connectionBuildingId": 1034468
}