{
  "customId": "EPPC0210487408",
  "manufacturer": "PPC",
  "communication": "dummy",
  "configStatus": "UNCONFIGURED",
  "communicationType": "GPRS",
  "gatewayType": "TYPE1",
  "status": "installed",
  "buildInDate": 1475532000000,
  "createdTimeStamp": "2016-05-17T16:23:58Z",
  "updatedTimeStamp": "2016-10-04T14:54:16Z",
  "gatewayId": 5090,
  "certificates": []
}