{
    "message":"Successfully completed request",
    "body":{
        "customId":"DE0700081634800000000001004896956",
        "description":"Created",
        "transformRatio":"1:5",
        "consumptionAverage":20.0,
        "status":null,
        "measuringType":"DIRECT",
        "medium":"COLD",
        "consumptionYear1":2.0,
        "consumptionYear2":5.0,
        "consumptionYear3":8.0,
        "consumptionForecast":8.0,
        "consumptionUnit":"KW",
        "measuringProduct":"NANO",
        "timeSlices":[
            {
                "from":"2017-02-20T15:34:00.000Z",
                "to":"2017-05-29T21:59:59.000Z",
                "marketParticipants":[
                    {
                        "code":"9901234567892",
                        "codeType":"BDEW",
                        "name":"EWE NB GmbH",
                        "marketParticipantId":1,
                        "role":"NB"
                    },
                    {
                        "code":"9901234567894",
                        "codeType":"BDEW",
                        "name":"EWE MDL alt",
                        "marketParticipantId":3,
                        "role":"MDL"
                    },
                    {
                        "code":"9901234567893",
                        "codeType":"BDEW",
                        "name":"EWE NETZ MSBA",
                        "marketParticipantId":2,
                        "role":"MSB"
                    }
                ],
                "fromInEpochMilli":1487604840000,
                "toInEpochMilli":1496095199000
            },
            {
                "from":"2017-05-29T21:59:59.000Z",
                "to":"2017-05-29T22:00:00.000Z",
                "marketParticipants":[
                    {
                        "code":"9901234567892",
                        "codeType":"BDEW",
                        "name":"EWE NB GmbH",
                        "marketParticipantId":1,
                        "role":"NB"
                    },
                    {
                        "code":"9901234567894",
                        "codeType":"BDEW",
                        "name":"EWE MDL alt",
                        "marketParticipantId":3,
                        "role":"MDL"
                    }
                ],
                "fromInEpochMilli":1496095199000,
                "toInEpochMilli":1496095200000
            },
            {
                "from":"2017-05-29T22:00:00.000Z",
                "to":"9999-12-31T23:59:00.000Z",
                "marketParticipants":[
                    {
                        "code":"9901234567892",
                        "codeType":"BDEW",
                        "name":"EWE NB GmbH",
                        "marketParticipantId":1,
                        "role":"NB"
                    },
                    {
                        "code":"9901234567894",
                        "codeType":"BDEW",
                        "name":"EWE MDL alt",
                        "marketParticipantId":3,
                        "role":"MDL"
                    },
                    {
                        "code":"9902468024683",
                        "codeType":"BDEW",
                        "name":"EWE Netz iMSBN",
                        "marketParticipantId":829,
                        "role":"MSB"
                    },
                    {
                        "code":"9902468024683",
                        "codeType":"BDEW",
                        "name":"EWE Netz",
                        "marketParticipantId":830,
                        "role":"gMSB"
                    }
                ],
                "fromInEpochMilli":1496095200000,
                "toInEpochMilli":253402300740000
            }
        ],
        "meterPointId":643,
        "defectCode":null,
        "completionCode":"1"
    }
}