{
  "meterPointId": 1491119,
  "customId": "DE0700081632100000000000070238000",
  "transformRatio": "0",
  "consumptionAverage": 566733.0,
  "measuringType": "DIRECT",
  "medium": "POWER",
  "consumptionForecast": 566733.0,
  "consumptionUnit": "kwh",
  "measuringProduct": "714",
  "createdTimeStamp": "2016-05-17T12:25:18Z"
}