{
  "customAttributes": [
    {
      "key": "deviceGroup",
      "value": "G4"
    },
    {
      "key": "changeProcess",
      "value": "L"
    },
    {
      "key": "changeProcessName",
      "value": "Stichprobenverfahren"
    },
    {
      "key": "deviceTypeName",
      "value": "BGZ/Kunststoffmembrane"
    }
  ]
}