{
    "totalNumber": "776",
    "gateways":
    [
        {
            "customId": "EPPC0210487402",
            "manufacturer": "PPC",
            "communication": "dummy",
            "configStatus": "UNCONFIGURED",
            "communicationType": "GPRS",
            "status": "installed",
            "buildInDate": 1476741600000,
            "createdTimeStamp": "2016-05-17T16:23:56Z",
            "updatedTimeStamp": "2016-10-18T09:20:36Z",
            "gatewayId": 5088,
            "certificates": []
        }
    ]
}