{
  "totalNumber":"1116816",
  "meterPoints":[
    {
      "meterPointId":1491169,
      "customId":"DE0700081632100000000000070237969",
      "transformRatio":"0",
      "consumptionAverage":566689.0,
      "measuringType":"DIRECT",
      "medium":"POWER",
      "consumptionForecast":566689.0,
      "consumptionUnit":"kwh",
      "measuringProduct":"714",
      "createdTimeStamp":"2016-05-17T12:25:18Z"
    },
    {
      "meterPointId":1491168,
      "customId":"DE0700081635600000000000070237967",
      "transformRatio":"0",
      "consumptionAverage":566688.0,
      "measuringType":"DIRECT",
      "medium":"POWER",
      "consumptionForecast":566688.0,
      "consumptionUnit":"kwh",
      "measuringProduct":"704",
      "createdTimeStamp":"2016-05-17T12:25:18Z"
    },
    {
      "meterPointId":1491167,
      "customId":"DE0700081632100000000000070237967",
      "transformRatio":"0",
      "consumptionAverage":566687.0,
      "measuringType":"DIRECT",
      "medium":"POWER",
      "consumptionForecast":566687.0,
      "consumptionUnit":"kwh",
      "measuringProduct":"716",
      "createdTimeStamp":"2016-05-17T12:25:18Z"
    },
    {
      "meterPointId":1491166,
      "customId":"DE0700081635600000000000070237964",
      "transformRatio":"0",
      "consumptionAverage":566684.0,
      "measuringType":"DIRECT",
      "medium":"POWER",
      "consumptionForecast":566684.0,
      "consumptionUnit":"kwh",
      "measuringProduct":"711",
      "createdTimeStamp":"2016-05-17T12:25:18Z"
    },
    {
      "meterPointId":1491165,
      "customId":"DE0700081632100000000000070237964",
      "transformRatio":"0",
      "consumptionAverage":566683.0,
      "measuringType":"DIRECT",
      "medium":"POWER",
      "consumptionForecast":566683.0,
      "consumptionUnit":"kwh",
      "measuringProduct":"709",
      "createdTimeStamp":"2016-05-17T12:25:18Z"
    },
    {
      "meterPointId":1491164,
      "customId":"DE0700081635600000000000070237962",
      "transformRatio":"0",
      "consumptionAverage":566682.0,
      "measuringType":"DIRECT",
      "medium":"POWER",
      "consumptionForecast":566682.0,
      "consumptionUnit":"kwh",
      "measuringProduct":"704",
      "createdTimeStamp":"2016-05-17T12:25:18Z"
    },
    {
      "meterPointId":1491163,
      "customId":"DE0700081632100000000000070237962",
      "transformRatio":"0",
      "consumptionAverage":566681.0,
      "measuringType":"DIRECT",
      "medium":"POWER",
      "consumptionForecast":566681.0,
      "consumptionUnit":"kwh",
      "measuringProduct":"715",
      "createdTimeStamp":"2016-05-17T12:25:18Z"
    },
    {
      "meterPointId":1491162,
      "customId":"DE0700081635600000000000070237961",
      "transformRatio":"0",
      "consumptionAverage":566680.0,
      "measuringType":"DIRECT",
      "medium":"POWER",
      "consumptionForecast":566680.0,
      "consumptionUnit":"kwh",
      "measuringProduct":"716",
      "createdTimeStamp":"2016-05-17T12:25:18Z"
    },
    {
      "meterPointId":1491161,
      "customId":"DE0700081632100000000000070237961",
      "transformRatio":"0",
      "consumptionAverage":566679.0,
      "measuringType":"DIRECT",
      "medium":"POWER",
      "consumptionForecast":566679.0,
      "consumptionUnit":"kwh",
      "measuringProduct":"703",
      "createdTimeStamp":"2016-05-17T12:25:18Z"
    },
    {
      "meterPointId":1491160,
      "customId":"DE0700081635600000000000070237960",
      "transformRatio":"0",
      "consumptionAverage":566678.0,
      "measuringType":"DIRECT",
      "medium":"POWER",
      "consumptionForecast":566678.0,
      "consumptionUnit":"kwh",
      "measuringProduct":"714",
      "createdTimeStamp":"2016-05-17T12:25:18Z"
    },
    {
      "meterPointId":1491159,
      "customId":"DE0700081632100000000000070237960",
      "transformRatio":"0",
      "consumptionAverage":566677.0,
      "measuringType":"DIRECT",
      "medium":"POWER",
      "consumptionForecast":566677.0,
      "consumptionUnit":"kwh",
      "measuringProduct":"702",
      "createdTimeStamp":"2016-05-17T12:25:18Z"
    },
    {
      "meterPointId":1491158,
      "customId":"DE0700081635600000000000070237958",
      "transformRatio":"0",
      "consumptionAverage":566674.0,
      "measuringType":"DIRECT",
      "medium":"POWER",
      "consumptionForecast":566674.0,
      "consumptionUnit":"kwh",
      "measuringProduct":"714",
      "createdTimeStamp":"2016-05-17T12:25:18Z"
    },
    {
      "meterPointId":1491157,
      "customId":"DE0700081632100000000000070237958",
      "transformRatio":"0",
      "consumptionAverage":566673.0,
      "measuringType":"DIRECT",
      "medium":"POWER",
      "consumptionForecast":566673.0,
      "consumptionUnit":"kwh",
      "measuringProduct":"705",
      "createdTimeStamp":"2016-05-17T12:25:18Z"
    },
    {
      "meterPointId":1491156,
      "customId":"DE0700081635600000000000070237957",
      "transformRatio":"0",
      "consumptionAverage":566672.0,
      "measuringType":"DIRECT",
      "medium":"POWER",
      "consumptionForecast":566672.0,
      "consumptionUnit":"kwh",
      "measuringProduct":"710",
      "createdTimeStamp":"2016-05-17T12:25:18Z"
    },
    {
      "meterPointId":1491155,
      "customId":"DE0700081632100000000000070237957",
      "transformRatio":"0",
      "consumptionAverage":566671.0,
      "measuringType":"DIRECT",
      "medium":"POWER",
      "consumptionForecast":566671.0,
      "consumptionUnit":"kwh",
      "measuringProduct":"707",
      "createdTimeStamp":"2016-05-17T12:25:18Z"
    },
    {
      "meterPointId":1491154,
      "customId":"DE0700081635600000000000070237955",
      "transformRatio":"0",
      "consumptionAverage":566670.0,
      "measuringType":"DIRECT",
      "medium":"POWER",
      "consumptionForecast":566670.0,
      "consumptionUnit":"kwh",
      "measuringProduct":"704",
      "createdTimeStamp":"2016-05-17T12:25:18Z"
    },
    {
      "meterPointId":1491153,
      "customId":"DE0700081632100000000000070237955",
      "transformRatio":"0",
      "consumptionAverage":566669.0,
      "measuringType":"DIRECT",
      "medium":"POWER",
      "consumptionForecast":566669.0,
      "consumptionUnit":"kwh",
      "measuringProduct":"708",
      "createdTimeStamp":"2016-05-17T12:25:18Z"
    },
    {
      "meterPointId":1491152,
      "customId":"DE0700081635600000000000070237954",
      "transformRatio":"0",
      "consumptionAverage":566668.0,
      "measuringType":"DIRECT",
      "medium":"POWER",
      "consumptionForecast":566668.0,
      "consumptionUnit":"kwh",
      "measuringProduct":"700",
      "createdTimeStamp":"2016-05-17T12:25:18Z"
    },
    {
      "meterPointId":1491151,
      "customId":"DE0700081632100000000000070237954",
      "transformRatio":"0",
      "consumptionAverage":566667.0,
      "measuringType":"DIRECT",
      "medium":"POWER",
      "consumptionForecast":566667.0,
      "consumptionUnit":"kwh",
      "measuringProduct":"700",
      "createdTimeStamp":"2016-05-17T12:25:18Z"
    },
    {
      "meterPointId":1491150,
      "customId":"DE0700081635600000000000070237953",
      "transformRatio":"0",
      "consumptionAverage":566666.0,
      "measuringType":"DIRECT",
      "medium":"POWER",
      "consumptionForecast":566666.0,
      "consumptionUnit":"kwh",
      "measuringProduct":"704",
      "createdTimeStamp":"2016-05-17T12:25:18Z"
    },
    {
      "meterPointId":1491149,
      "customId":"DE0700081632100000000000070237953",
      "transformRatio":"0",
      "consumptionAverage":566665.0,
      "measuringType":"DIRECT",
      "medium":"POWER",
      "consumptionForecast":566665.0,
      "consumptionUnit":"kwh",
      "measuringProduct":"709",
      "createdTimeStamp":"2016-05-17T12:25:18Z"
    },
    {
      "meterPointId":1491148,
      "customId":"DE0700081635600000000000070237952",
      "transformRatio":"0",
      "consumptionAverage":566664.0,
      "measuringType":"DIRECT",
      "medium":"POWER",
      "consumptionForecast":566664.0,
      "consumptionUnit":"kwh",
      "measuringProduct":"702",
      "createdTimeStamp":"2016-05-17T12:25:18Z"
    },
    {
      "meterPointId":1491147,
      "customId":"DE0700081632100000000000070237952",
      "transformRatio":"0",
      "consumptionAverage":566663.0,
      "measuringType":"DIRECT",
      "medium":"POWER",
      "consumptionForecast":566663.0,
      "consumptionUnit":"kwh",
      "measuringProduct":"712",
      "createdTimeStamp":"2016-05-17T12:25:18Z"
    },
    {
      "meterPointId":1491146,
      "customId":"DE0700081635600000000000070237950",
      "transformRatio":"0",
      "consumptionAverage":566662.0,
      "measuringType":"DIRECT",
      "medium":"POWER",
      "consumptionForecast":566662.0,
      "consumptionUnit":"kwh",
      "measuringProduct":"700",
      "createdTimeStamp":"2016-05-17T12:25:18Z"
    },
    {
      "meterPointId":1491145,
      "customId":"DE0700081632100000000000070237950",
      "transformRatio":"0",
      "consumptionAverage":566661.0,
      "measuringType":"DIRECT",
      "medium":"POWER",
      "consumptionForecast":566661.0,
      "consumptionUnit":"kwh",
      "measuringProduct":"700",
      "createdTimeStamp":"2016-05-17T12:25:18Z"
    },
    {
      "meterPointId":1491144,
      "customId":"DE0700081635600000000000070237948",
      "transformRatio":"0",
      "consumptionAverage":566658.0,
      "measuringType":"DIRECT",
      "medium":"POWER",
      "consumptionForecast":566658.0,
      "consumptionUnit":"kwh",
      "measuringProduct":"700",
      "createdTimeStamp":"2016-05-17T12:25:18Z"
    },
    {
      "meterPointId":1491143,
      "customId":"DE0700081632100000000000070237948",
      "transformRatio":"0",
      "consumptionAverage":566657.0,
      "measuringType":"DIRECT",
      "medium":"POWER",
      "consumptionForecast":566657.0,
      "consumptionUnit":"kwh",
      "measuringProduct":"700",
      "createdTimeStamp":"2016-05-17T12:25:18Z"
    },
    {
      "meterPointId":1491142,
      "customId":"DE0700081635600000000000070237947",
      "transformRatio":"0",
      "consumptionAverage":566656.0,
      "measuringType":"DIRECT",
      "medium":"POWER",
      "consumptionForecast":566656.0,
      "consumptionUnit":"kwh",
      "measuringProduct":"716",
      "createdTimeStamp":"2016-05-17T12:25:18Z"
    },
    {
      "meterPointId":1491141,
      "customId":"DE0700081632100000000000070237947",
      "transformRatio":"0",
      "consumptionAverage":566655.0,
      "measuringType":"DIRECT",
      "medium":"POWER",
      "consumptionForecast":566655.0,
      "consumptionUnit":"kwh",
      "measuringProduct":"710",
      "createdTimeStamp":"2016-05-17T12:25:18Z"
    },
    {
      "meterPointId":1491140,
      "customId":"DE0700081635600000000000070237945",
      "transformRatio":"0",
      "consumptionAverage":566654.0,
      "measuringType":"DIRECT",
      "medium":"POWER",
      "consumptionForecast":566654.0,
      "consumptionUnit":"kwh",
      "measuringProduct":"700",
      "createdTimeStamp":"2016-05-17T12:25:18Z"
    },
    {
      "meterPointId":1491139,
      "customId":"DE0700081632100000000000070237945",
      "transformRatio":"0",
      "consumptionAverage":566653.0,
      "measuringType":"DIRECT",
      "medium":"POWER",
      "consumptionForecast":566653.0,
      "consumptionUnit":"kwh",
      "measuringProduct":"700",
      "createdTimeStamp":"2016-05-17T12:25:18Z"
    },
    {
      "meterPointId":1491138,
      "customId":"DE0700081635600000000000070237944",
      "transformRatio":"0",
      "consumptionAverage":566652.0,
      "measuringType":"DIRECT",
      "medium":"POWER",
      "consumptionForecast":566652.0,
      "consumptionUnit":"kwh",
      "measuringProduct":"702",
      "createdTimeStamp":"2016-05-17T12:25:18Z"
    },
    {
      "meterPointId":1491137,
      "customId":"DE0700081632100000000000070237944",
      "transformRatio":"0",
      "consumptionAverage":566651.0,
      "measuringType":"DIRECT",
      "medium":"POWER",
      "consumptionForecast":566651.0,
      "consumptionUnit":"kwh",
      "measuringProduct":"704",
      "createdTimeStamp":"2016-05-17T12:25:18Z"
    },
    {
      "meterPointId":1491136,
      "customId":"DE0700081635600000000000070237978",
      "transformRatio":"0",
      "consumptionAverage":566702.0,
      "measuringType":"DIRECT",
      "medium":"POWER",
      "consumptionForecast":566702.0,
      "consumptionUnit":"kwh",
      "measuringProduct":"714",
      "createdTimeStamp":"2016-05-17T12:25:18Z"
    },
    {
      "meterPointId":1491135,
      "customId":"DE0700081632100000000000070237978",
      "transformRatio":"0",
      "consumptionAverage":566701.0,
      "measuringType":"DIRECT",
      "medium":"POWER",
      "consumptionForecast":566701.0,
      "consumptionUnit":"kwh",
      "measuringProduct":"704",
      "createdTimeStamp":"2016-05-17T12:25:18Z"
    },
    {
      "meterPointId":1491134,
      "customId":"DE0700081635600000000000070237974",
      "transformRatio":"0",
      "consumptionAverage":566698.0,
      "measuringType":"DIRECT",
      "medium":"POWER",
      "consumptionForecast":566698.0,
      "consumptionUnit":"kwh",
      "measuringProduct":"714",
      "createdTimeStamp":"2016-05-17T12:25:18Z"
    },
    {
      "meterPointId":1491133,
      "customId":"DE0700081632100000000000070237974",
      "transformRatio":"0",
      "consumptionAverage":566697.0,
      "measuringType":"DIRECT",
      "medium":"POWER",
      "consumptionForecast":566697.0,
      "consumptionUnit":"kwh",
      "measuringProduct":"715",
      "createdTimeStamp":"2016-05-17T12:25:18Z"
    },
    {
      "meterPointId":1491132,
      "customId":"DE0700081635600000000000070237973",
      "transformRatio":"0",
      "consumptionAverage":566696.0,
      "measuringType":"DIRECT",
      "medium":"POWER",
      "consumptionForecast":566696.0,
      "consumptionUnit":"kwh",
      "measuringProduct":"708",
      "createdTimeStamp":"2016-05-17T12:25:18Z"
    },
    {
      "meterPointId":1491131,
      "customId":"DE0700081632100000000000070237973",
      "transformRatio":"0",
      "consumptionAverage":566695.0,
      "measuringType":"DIRECT",
      "medium":"POWER",
      "consumptionForecast":566695.0,
      "consumptionUnit":"kwh",
      "measuringProduct":"709",
      "createdTimeStamp":"2016-05-17T12:25:18Z"
    },
    {
      "meterPointId":1491130,
      "customId":"DE0700081635600000000000070237972",
      "transformRatio":"0",
      "consumptionAverage":566694.0,
      "measuringType":"DIRECT",
      "medium":"POWER",
      "consumptionForecast":566694.0,
      "consumptionUnit":"kwh",
      "measuringProduct":"715",
      "createdTimeStamp":"2016-05-17T12:25:18Z"
    },
    {
      "meterPointId":1491129,
      "customId":"DE0700081632100000000000070237972",
      "transformRatio":"0",
      "consumptionAverage":566693.0,
      "measuringType":"DIRECT",
      "medium":"POWER",
      "consumptionForecast":566693.0,
      "consumptionUnit":"kwh",
      "measuringProduct":"702",
      "createdTimeStamp":"2016-05-17T12:25:18Z"
    },
    {
      "meterPointId":1491128,
      "customId":"DE0700081635600000000000070237965",
      "transformRatio":"0",
      "consumptionAverage":566686.0,
      "measuringType":"DIRECT",
      "medium":"POWER",
      "consumptionForecast":566686.0,
      "consumptionUnit":"kwh",
      "measuringProduct":"702",
      "createdTimeStamp":"2016-05-17T12:25:18Z"
    },
    {
      "meterPointId":1491127,
      "customId":"DE0700081632100000000000070237965",
      "transformRatio":"0",
      "consumptionAverage":566685.0,
      "measuringType":"DIRECT",
      "medium":"POWER",
      "consumptionForecast":566685.0,
      "consumptionUnit":"kwh",
      "measuringProduct":"705",
      "createdTimeStamp":"2016-05-17T12:25:18Z"
    },
    {
      "meterPointId":1491126,
      "customId":"DE0700081635600000000000070237959",
      "transformRatio":"0",
      "consumptionAverage":566676.0,
      "measuringType":"DIRECT",
      "medium":"POWER",
      "consumptionForecast":566676.0,
      "consumptionUnit":"kwh",
      "measuringProduct":"715",
      "createdTimeStamp":"2016-05-17T12:25:18Z"
    },
    {
      "meterPointId":1491125,
      "customId":"DE0700081632100000000000070237959",
      "transformRatio":"0",
      "consumptionAverage":566675.0,
      "measuringType":"DIRECT",
      "medium":"POWER",
      "consumptionForecast":566675.0,
      "consumptionUnit":"kwh",
      "measuringProduct":"710",
      "createdTimeStamp":"2016-05-17T12:25:18Z"
    },
    {
      "meterPointId":1491124,
      "customId":"DE0700081635600000000000070238004",
      "transformRatio":"0",
      "consumptionAverage":566738.0,
      "measuringType":"DIRECT",
      "medium":"POWER",
      "consumptionForecast":566738.0,
      "consumptionUnit":"kwh",
      "measuringProduct":"710",
      "createdTimeStamp":"2016-05-17T12:25:18Z"
    },
    {
      "meterPointId":1491123,
      "customId":"DE0700081632100000000000070238004",
      "transformRatio":"0",
      "consumptionAverage":566737.0,
      "measuringType":"DIRECT",
      "medium":"POWER",
      "consumptionForecast":566737.0,
      "consumptionUnit":"kwh",
      "measuringProduct":"714",
      "createdTimeStamp":"2016-05-17T12:25:18Z"
    },
    {
      "meterPointId":1491122,
      "customId":"DE0700081635600000000000070238002",
      "transformRatio":"0",
      "consumptionAverage":566736.0,
      "measuringType":"DIRECT",
      "medium":"POWER",
      "consumptionForecast":566736.0,
      "consumptionUnit":"kwh",
      "measuringProduct":"704",
      "createdTimeStamp":"2016-05-17T12:25:18Z"
    },
    {
      "meterPointId":1491121,
      "customId":"DE0700081632100000000000070238002",
      "transformRatio":"0",
      "consumptionAverage":566735.0,
      "measuringType":"DIRECT",
      "medium":"POWER",
      "consumptionForecast":566735.0,
      "consumptionUnit":"kwh",
      "measuringProduct":"705",
      "createdTimeStamp":"2016-05-17T12:25:18Z"
    },
    {
      "meterPointId":1491120,
      "customId":"DE0700081635600000000000070238000",
      "transformRatio":"0",
      "consumptionAverage":566734.0,
      "measuringType":"DIRECT",
      "medium":"POWER",
      "consumptionForecast":566734.0,
      "consumptionUnit":"kwh",
      "measuringProduct":"703",
      "createdTimeStamp":"2016-05-17T12:25:18Z"
    }
  ]
}