{
  "totalNumber": "3994",
  "persons": [
    {
      "createdTimeStamp": "2016-05-17T12:23:10Z",
      "customId": "70466612",
      "salutation": "Herrn",
      "firstName": "Ewald",
      "street": "Alexanderstr.",
      "houseNumber": "144",
      "houseNumberAppendix": "e",
      "postalCode": "12345",
      "city": "Musterort",
      "country": "DE",
      "personId": 1477951
    }
  ]
}