{
  "customId": "G22175AAA25185",
  "status": "installed",
  "deviceType": "22175",
  "deviceClass": "meter",
  "manufacturer": "GASELAN",
  "calibrationYear": "1999",
  "constructionYear": "1999",
  "buildInDate": 953074800000,
  "lotNumber": "04931",
  "medium": "POWER",
  "measuringPrinciple": "ABSOLUTE",
  "registers": [
    {
      "name": "7-20:3.0.0",
      "billingRelevant": "true"
    },
    {
      "name": "7-20:3.0.0",
      "billingRelevant": "true"
    }
  ],
  "createdTimeStamp": "2016-05-17T12:25:20Z",
  "calibrationEndYear": 2015,
  "examinationNumber": "00000",
  "meterId": 1494726
}